(module SW_Push_SCI_R13-24 (layer F.Cu) (tedit 5DA772C1)
  (tags 250V)
  (fp_text reference REF** (at 0 8) (layer F.SilkS)
    (effects (font (size 1 1) (thickness 0.15)))
  )
  (fp_text value SW_Push_SCI_R13-24 (at 0 -0.5) (layer F.Fab)
    (effects (font (size 1 1) (thickness 0.15)))
  )
  (fp_circle (center 0 0) (end 3.6 0) (layer F.SilkS) (width 0.15))
  (fp_circle (center 0 0) (end 5.8 0) (layer F.SilkS) (width 0.15))
  (pad "" thru_hole circle (at 0 0) (size 13 13) (drill 12) (layers *.Cu *.Mask))
  (pad 1 thru_hole circle (at -2.54 8.89) (size 1.6 1.6) (drill 0.8) (layers *.Cu *.Mask))
  (pad 2 thru_hole circle (at 2.54 8.89) (size 1.6 1.6) (drill 0.8) (layers *.Cu *.Mask))
)
