(module TO-220-3_Horizontal_TabUpScrewHole (layer F.Cu) (tedit 5DA77D67)
  (descr "TO-220-3, Horizontal, RM 2.54mm, see https://www.vishay.com/docs/66542/to-220-1.pdf")
  (tags "TO-220-3 Horizontal RM 2.54mm")
  (fp_text reference REF** (at 2.54 20.58) (layer F.SilkS)
    (effects (font (size 1 1) (thickness 0.15)))
  )
  (fp_text value TO-220-3_Horizontal_TabUpScrewHole (at 2.54 -2) (layer F.Fab)
    (effects (font (size 1 1) (thickness 0.15)))
  )
  (fp_text user %R (at 2.54 20.58) (layer F.Fab)
    (effects (font (size 1 1) (thickness 0.15)))
  )
  (fp_line (start 7.79 -1.25) (end -2.71 -1.25) (layer F.CrtYd) (width 0.05))
  (fp_line (start 7.79 19.71) (end 7.79 -1.25) (layer F.CrtYd) (width 0.05))
  (fp_line (start -2.71 19.71) (end 7.79 19.71) (layer F.CrtYd) (width 0.05))
  (fp_line (start -2.71 -1.25) (end -2.71 19.71) (layer F.CrtYd) (width 0.05))
  (fp_line (start 5.08 1.15) (end 5.08 3.69) (layer F.SilkS) (width 0.12))
  (fp_line (start 2.54 1.15) (end 2.54 3.69) (layer F.SilkS) (width 0.12))
  (fp_line (start 0 1.15) (end 0 3.69) (layer F.SilkS) (width 0.12))
  (fp_line (start 7.66 18.22) (end 7.66 19.42) (layer F.SilkS) (width 0.12))
  (fp_line (start 7.66 15.82) (end 7.66 17.02) (layer F.SilkS) (width 0.12))
  (fp_line (start 7.66 13.42) (end 7.66 14.62) (layer F.SilkS) (width 0.12))
  (fp_line (start -2.58 18.22) (end -2.58 19.42) (layer F.SilkS) (width 0.12))
  (fp_line (start -2.58 15.82) (end -2.58 17.02) (layer F.SilkS) (width 0.12))
  (fp_line (start -2.58 13.42) (end -2.58 14.62) (layer F.SilkS) (width 0.12))
  (fp_line (start 7.02 19.58) (end 7.66 19.58) (layer F.SilkS) (width 0.12))
  (fp_line (start 4.62 19.58) (end 5.82 19.58) (layer F.SilkS) (width 0.12))
  (fp_line (start 2.22 19.58) (end 3.42 19.58) (layer F.SilkS) (width 0.12))
  (fp_line (start -0.181 19.58) (end 1.02 19.58) (layer F.SilkS) (width 0.12))
  (fp_line (start -2.58 19.58) (end -1.38 19.58) (layer F.SilkS) (width 0.12))
  (fp_line (start 7.66 3.69) (end 7.66 13.18) (layer F.SilkS) (width 0.12))
  (fp_line (start -2.58 3.69) (end -2.58 13.18) (layer F.SilkS) (width 0.12))
  (fp_line (start -2.58 13.18) (end 7.66 13.18) (layer F.SilkS) (width 0.12))
  (fp_line (start -2.58 3.69) (end 7.66 3.69) (layer F.SilkS) (width 0.12))
  (fp_line (start 5.08 3.81) (end 5.08 0) (layer F.Fab) (width 0.1))
  (fp_line (start 2.54 3.81) (end 2.54 0) (layer F.Fab) (width 0.1))
  (fp_line (start 0 3.81) (end 0 0) (layer F.Fab) (width 0.1))
  (fp_line (start 7.54 3.81) (end -2.46 3.81) (layer F.Fab) (width 0.1))
  (fp_line (start 7.54 13.06) (end 7.54 3.81) (layer F.Fab) (width 0.1))
  (fp_line (start -2.46 13.06) (end 7.54 13.06) (layer F.Fab) (width 0.1))
  (fp_line (start -2.46 3.81) (end -2.46 13.06) (layer F.Fab) (width 0.1))
  (fp_line (start 7.54 13.06) (end -2.46 13.06) (layer F.Fab) (width 0.1))
  (fp_line (start 7.54 19.46) (end 7.54 13.06) (layer F.Fab) (width 0.1))
  (fp_line (start -2.46 19.46) (end 7.54 19.46) (layer F.Fab) (width 0.1))
  (fp_line (start -2.46 13.06) (end -2.46 19.46) (layer F.Fab) (width 0.1))
  (fp_circle (center 2.54 16.66) (end 4.39 16.66) (layer F.Fab) (width 0.1))
  (pad 3 thru_hole oval (at 5.08 0) (size 1.905 2) (drill 1.1) (layers *.Cu *.Mask))
  (pad 2 thru_hole oval (at 2.54 0) (size 1.905 2) (drill 1.1) (layers *.Cu *.Mask))
  (pad 1 thru_hole rect (at 0 0) (size 1.905 2) (drill 1.1) (layers *.Cu *.Mask))
  (pad "" np_thru_hole oval (at 2.54 16.66) (size 7 7) (drill 7) (layers *.Cu *.Mask))
  (model ${KISYS3DMOD}/Package_TO_SOT_THT.3dshapes/TO-220-3_Horizontal_TabUp.wrl
    (at (xyz 0 0 0))
    (scale (xyz 1 1 1))
    (rotate (xyz 0 0 0))
  )
)
