(module QFN-20-1EP_3x3mm_P0.4mm_EP1.65x1.65mm_ThermalVias (layer F.Cu) (tedit 5CF66A87)
  (descr "QFN, 20 Pin (https://www.analog.com/media/en/technical-documentation/data-sheets/3553fc.pdf#page=34), generated with kicad-footprint-generator ipc_noLead_generator.py")
  (tags "QFN NoLead")
  (attr smd)
  (fp_text reference U1 (at 2.57 1.7 -180) (layer F.SilkS) hide
    (effects (font (size 1 1) (thickness 0.15)))
  )
  (fp_text value ltc3558eud-trpbf (at 0 2.82 -180) (layer F.Fab)
    (effects (font (size 1 1) (thickness 0.15)))
  )
  (fp_text user %R (at 0 0 -180) (layer F.Fab) hide
    (effects (font (size 0.75 0.75) (thickness 0.11)))
  )
  (fp_line (start 2.12 -2.12) (end -2.12 -2.12) (layer F.CrtYd) (width 0.05))
  (fp_line (start 2.12 2.12) (end 2.12 -2.12) (layer F.CrtYd) (width 0.05))
  (fp_line (start -2.12 2.12) (end 2.12 2.12) (layer F.CrtYd) (width 0.05))
  (fp_line (start -2.12 -2.12) (end -2.12 2.12) (layer F.CrtYd) (width 0.05))
  (fp_line (start -1.5 -0.75) (end -0.75 -1.5) (layer F.Fab) (width 0.1))
  (fp_line (start -1.5 1.5) (end -1.5 -0.75) (layer F.Fab) (width 0.1))
  (fp_line (start 1.5 1.5) (end -1.5 1.5) (layer F.Fab) (width 0.1))
  (fp_line (start 1.5 -1.5) (end 1.5 1.5) (layer F.Fab) (width 0.1))
  (fp_line (start -0.75 -1.5) (end 1.5 -1.5) (layer F.Fab) (width 0.1))
  (fp_line (start -1.16 -1.61) (end -1.61 -1.61) (layer F.SilkS) (width 0.12))
  (fp_line (start 1.61 1.61) (end 1.61 1.16) (layer F.SilkS) (width 0.12))
  (fp_line (start 1.16 1.61) (end 1.61 1.61) (layer F.SilkS) (width 0.12))
  (fp_line (start -1.61 1.61) (end -1.61 1.16) (layer F.SilkS) (width 0.12))
  (fp_line (start -1.16 1.61) (end -1.61 1.61) (layer F.SilkS) (width 0.12))
  (fp_line (start 1.61 -1.61) (end 1.61 -1.16) (layer F.SilkS) (width 0.12))
  (fp_line (start 1.16 -1.61) (end 1.61 -1.61) (layer F.SilkS) (width 0.12))
  (pad 20 smd roundrect (at -0.8 -1.45) (size 0.2 0.85) (layers F.Cu F.Paste F.Mask) (roundrect_rratio 0.25))
  (pad 19 smd roundrect (at -0.4 -1.45) (size 0.2 0.85) (layers F.Cu F.Paste F.Mask) (roundrect_rratio 0.25))
  (pad 18 smd roundrect (at 0 -1.45) (size 0.2 0.85) (layers F.Cu F.Paste F.Mask) (roundrect_rratio 0.25))
  (pad 17 smd roundrect (at 0.4 -1.45) (size 0.2 0.85) (layers F.Cu F.Paste F.Mask) (roundrect_rratio 0.25))
  (pad 16 smd roundrect (at 0.8 -1.45) (size 0.2 0.85) (layers F.Cu F.Paste F.Mask) (roundrect_rratio 0.25))
  (pad 15 smd roundrect (at 1.45 -0.8) (size 0.85 0.2) (layers F.Cu F.Paste F.Mask) (roundrect_rratio 0.25))
  (pad 14 smd roundrect (at 1.45 -0.4) (size 0.85 0.2) (layers F.Cu F.Paste F.Mask) (roundrect_rratio 0.25))
  (pad 13 smd roundrect (at 1.45 0) (size 0.85 0.2) (layers F.Cu F.Paste F.Mask) (roundrect_rratio 0.25))
  (pad 12 smd roundrect (at 1.45 0.4) (size 0.85 0.2) (layers F.Cu F.Paste F.Mask) (roundrect_rratio 0.25))
  (pad 11 smd roundrect (at 1.45 0.8) (size 0.85 0.2) (layers F.Cu F.Paste F.Mask) (roundrect_rratio 0.25))
  (pad 10 smd roundrect (at 0.8 1.45) (size 0.2 0.85) (layers F.Cu F.Paste F.Mask) (roundrect_rratio 0.25))
  (pad 9 smd roundrect (at 0.4 1.45) (size 0.2 0.85) (layers F.Cu F.Paste F.Mask) (roundrect_rratio 0.25))
  (pad 8 smd roundrect (at 0 1.45) (size 0.2 0.85) (layers F.Cu F.Paste F.Mask) (roundrect_rratio 0.25))
  (pad 7 smd roundrect (at -0.4 1.45) (size 0.2 0.85) (layers F.Cu F.Paste F.Mask) (roundrect_rratio 0.25))
  (pad 6 smd roundrect (at -0.8 1.45) (size 0.2 0.85) (layers F.Cu F.Paste F.Mask) (roundrect_rratio 0.25))
  (pad 5 smd roundrect (at -1.45 0.8) (size 0.85 0.2) (layers F.Cu F.Paste F.Mask) (roundrect_rratio 0.25))
  (pad 4 smd roundrect (at -1.45 0.4) (size 0.85 0.2) (layers F.Cu F.Paste F.Mask) (roundrect_rratio 0.25))
  (pad 3 smd roundrect (at -1.45 0) (size 0.85 0.2) (layers F.Cu F.Paste F.Mask) (roundrect_rratio 0.25))
  (pad 2 smd roundrect (at -1.45 -0.4) (size 0.85 0.2) (layers F.Cu F.Paste F.Mask) (roundrect_rratio 0.25))
  (pad 1 smd roundrect (at -1.45 -0.8) (size 0.85 0.2) (layers F.Cu F.Paste F.Mask) (roundrect_rratio 0.25))
  (pad "" smd roundrect (at 0.41 0.41) (size 0.69 0.69) (layers F.Paste) (roundrect_rratio 0.25))
  (pad "" smd roundrect (at 0.41 -0.41) (size 0.69 0.69) (layers F.Paste) (roundrect_rratio 0.25))
  (pad "" smd roundrect (at -0.41 0.41) (size 0.69 0.69) (layers F.Paste) (roundrect_rratio 0.25))
  (pad "" smd roundrect (at -0.41 -0.41) (size 0.69 0.69) (layers F.Paste) (roundrect_rratio 0.25))
  (pad 21 smd roundrect (at 0 0) (size 1.65 1.65) (layers B.Cu) (roundrect_rratio 0.152)
    (zone_connect 2))
  (pad 21 thru_hole circle (at 0.52 0.52) (size 0.6 0.6) (drill 0.35) (layers *.Cu)
    (zone_connect 2))
  (pad 21 thru_hole circle (at -0.52 0.52) (size 0.6 0.6) (drill 0.35) (layers *.Cu)
    (zone_connect 2))
  (pad 21 thru_hole circle (at 0.52 -0.52) (size 0.6 0.6) (drill 0.35) (layers *.Cu)
    (zone_connect 2))
  (pad 21 thru_hole circle (at -0.52 -0.52) (size 0.6 0.6) (drill 0.35) (layers *.Cu)
    (zone_connect 2))
  (pad 21 smd roundrect (at 0 0) (size 1.65 1.65) (layers F.Cu F.Mask) (roundrect_rratio 0.152)
    (zone_connect 2))
  (model ${KISYS3DMOD}/Package_DFN_QFN.3dshapes/QFN-20-1EP_3x3mm_P0.4mm_EP1.65x1.65mm.wrl
    (at (xyz 0 0 0))
    (scale (xyz 1 1 1))
    (rotate (xyz 0 0 0))
  )
)
