(module IDC-Header_2x07_P2.54mm_Edge (layer F.Cu) (tedit 5E8B37EE)
  (descr "Harwin Male Horizontal Surface Mount Single Row 2.54mm (0.1 inch) Pitch PCB Connector, M20-89007xx, 7 Pins per row (https://cdn.harwin.com/pdfs/M20-890.pdf), generated with kicad-footprint-generator")
  (tags "connector Harwin M20-890 horizontal")
  (attr smd)
  (fp_text reference REF** (at -5.08 -9.525) (layer F.SilkS)
    (effects (font (size 1 1) (thickness 0.15)))
  )
  (fp_text value IDC-Header_2x07_P2.54mm_Edge (at -1.115 10.09) (layer F.Fab)
    (effects (font (size 1 1) (thickness 0.15)))
  )
  (fp_line (start -1.725 -7.94) (end -6.425 -7.94) (layer F.Fab) (width 0.1))
  (fp_line (start -6.425 -7.94) (end -6.425 -7.3) (layer F.Fab) (width 0.1))
  (fp_line (start -6.425 -7.3) (end -1.725 -7.3) (layer F.Fab) (width 0.1))
  (fp_line (start -1.725 -5.4) (end -6.425 -5.4) (layer F.Fab) (width 0.1))
  (fp_line (start -6.425 -5.4) (end -6.425 -4.76) (layer F.Fab) (width 0.1))
  (fp_line (start -6.425 -4.76) (end -1.725 -4.76) (layer F.Fab) (width 0.1))
  (fp_line (start -1.725 -2.86) (end -6.425 -2.86) (layer F.Fab) (width 0.1))
  (fp_line (start -6.425 -2.86) (end -6.425 -2.22) (layer F.Fab) (width 0.1))
  (fp_line (start -6.425 -2.22) (end -1.725 -2.22) (layer F.Fab) (width 0.1))
  (fp_line (start -1.725 -0.32) (end -6.425 -0.32) (layer F.Fab) (width 0.1))
  (fp_line (start -6.425 -0.32) (end -6.425 0.32) (layer F.Fab) (width 0.1))
  (fp_line (start -6.425 0.32) (end -1.725 0.32) (layer F.Fab) (width 0.1))
  (fp_line (start -1.725 2.22) (end -6.425 2.22) (layer F.Fab) (width 0.1))
  (fp_line (start -6.425 2.22) (end -6.425 2.86) (layer F.Fab) (width 0.1))
  (fp_line (start -6.425 2.86) (end -1.725 2.86) (layer F.Fab) (width 0.1))
  (fp_line (start -1.725 4.76) (end -6.425 4.76) (layer F.Fab) (width 0.1))
  (fp_line (start -6.425 4.76) (end -6.425 5.4) (layer F.Fab) (width 0.1))
  (fp_line (start -6.425 5.4) (end -1.725 5.4) (layer F.Fab) (width 0.1))
  (fp_line (start -1.725 7.3) (end -6.425 7.3) (layer F.Fab) (width 0.1))
  (fp_line (start -6.425 7.3) (end -6.425 7.94) (layer F.Fab) (width 0.1))
  (fp_line (start -6.425 7.94) (end -1.725 7.94) (layer F.Fab) (width 0.1))
  (fp_line (start -3.955 -8.06) (end -2.2225 -8.06) (layer F.SilkS) (width 0.12))
  (fp_line (start -3.955 -7.18) (end -2.2225 -7.18) (layer F.SilkS) (width 0.12))
  (fp_line (start -3.955 -5.52) (end -2.2225 -5.52) (layer F.SilkS) (width 0.12))
  (fp_line (start -3.955 -4.64) (end -2.2225 -4.64) (layer F.SilkS) (width 0.12))
  (fp_line (start -3.955 -2.98) (end -2.2225 -2.98) (layer F.SilkS) (width 0.12))
  (fp_line (start -3.955 -2.1) (end -2.2225 -2.0955) (layer F.SilkS) (width 0.12))
  (fp_line (start -3.955 -0.44) (end -2.2225 -0.44) (layer F.SilkS) (width 0.12))
  (fp_line (start -3.955 0.44) (end -2.2225 0.44) (layer F.SilkS) (width 0.12))
  (fp_line (start -3.955 2.1) (end -2.2225 2.1) (layer F.SilkS) (width 0.12))
  (fp_line (start -3.955 2.98) (end -2.2225 2.98) (layer F.SilkS) (width 0.12))
  (fp_line (start -3.955 4.64) (end -2.2225 4.64) (layer F.SilkS) (width 0.12))
  (fp_line (start -3.955 5.52) (end -2.2225 5.52) (layer F.SilkS) (width 0.12))
  (fp_line (start -3.955 7.18) (end -2.2225 7.18) (layer F.SilkS) (width 0.12))
  (fp_line (start -3.955 8.06) (end -2.2225 8.0645) (layer F.SilkS) (width 0.12))
  (fp_line (start -7.095 -7.62) (end -7.095 -8.44) (layer F.SilkS) (width 0.12))
  (fp_line (start -7.095 -8.44) (end -5.525 -8.44) (layer F.SilkS) (width 0.12))
  (fp_line (start -1.97 12.72) (end -1.97 -11.72) (layer F.Fab) (width 0.1))
  (fp_line (start -1.97 12.72) (end 6.88 12.72) (layer F.Fab) (width 0.1))
  (fp_line (start -1.97 -11.72) (end -0.97 -12.72) (layer F.Fab) (width 0.1))
  (fp_line (start 6.88 12.72) (end 6.88 -12.72) (layer F.Fab) (width 0.1))
  (fp_text user %R (at 2.455 0 90) (layer F.Fab)
    (effects (font (size 1 1) (thickness 0.15)))
  )
  (fp_line (start -2.22 2.25) (end -1.905 2.25) (layer F.SilkS) (width 0.12))
  (fp_line (start -2.22 -2.25) (end -1.905 -2.25) (layer F.SilkS) (width 0.12))
  (fp_line (start -2.22 12.97) (end -2.22 -12.97) (layer F.SilkS) (width 0.12))
  (fp_line (start -2.22 12.97) (end -1.905 12.97) (layer F.SilkS) (width 0.12))
  (fp_line (start -2.22 -12.97) (end -1.905 -12.97) (layer F.SilkS) (width 0.12))
  (fp_line (start -1.905 -12.97) (end -1.905 12.97) (layer F.SilkS) (width 0.12))
  (fp_line (start -0.97 -12.72) (end 6.88 -12.72) (layer F.Fab) (width 0.1))
  (fp_line (start -1.97 2.25) (end 6.88 2.25) (layer F.Fab) (width 0.1))
  (fp_line (start -1.97 -2.25) (end 6.88 -2.25) (layer F.Fab) (width 0.1))
  (fp_line (start -6.985 -9.525) (end -6.985 9.525) (layer F.CrtYd) (width 0.12))
  (fp_line (start -6.985 9.525) (end -2.0955 9.525) (layer F.CrtYd) (width 0.12))
  (fp_line (start -2.0955 9.525) (end -2.0955 12.8905) (layer F.CrtYd) (width 0.12))
  (fp_line (start -2.0955 12.8905) (end 7.0485 12.8905) (layer F.CrtYd) (width 0.12))
  (fp_line (start 7.0485 12.8905) (end 7.0485 -12.8905) (layer F.CrtYd) (width 0.12))
  (fp_line (start 7.0485 -12.8905) (end -2.159 -12.8905) (layer F.CrtYd) (width 0.12))
  (fp_line (start -2.159 -12.8905) (end -2.159 -9.525) (layer F.CrtYd) (width 0.12))
  (fp_line (start -2.159 -9.525) (end -6.985 -9.525) (layer F.CrtYd) (width 0.12))
  (pad 1 smd rect (at -5.08 -7.62) (size 2.5 1) (layers F.Cu F.Paste F.Mask))
  (pad 3 smd rect (at -5.08 -5.08) (size 2.5 1) (layers F.Cu F.Paste F.Mask))
  (pad 5 smd rect (at -5.08 -2.54) (size 2.5 1) (layers F.Cu F.Paste F.Mask))
  (pad 7 smd rect (at -5.08 0) (size 2.5 1) (layers F.Cu F.Paste F.Mask))
  (pad 9 smd rect (at -5.08 2.54) (size 2.5 1) (layers F.Cu F.Paste F.Mask))
  (pad 11 smd rect (at -5.08 5.08) (size 2.5 1) (layers F.Cu F.Paste F.Mask))
  (pad 13 smd rect (at -5.08 7.62) (size 2.5 1) (layers F.Cu F.Paste F.Mask))
  (pad 2 smd rect (at -5.08 -7.62) (size 2.5 1) (layers B.Cu B.Paste B.Mask))
  (pad 4 smd rect (at -5.08 -5.08) (size 2.5 1) (layers B.Cu B.Paste B.Mask))
  (pad 6 smd rect (at -5.08 -2.54) (size 2.5 1) (layers B.Cu B.Paste B.Mask))
  (pad 8 smd rect (at -5.08 0) (size 2.5 1) (layers B.Cu B.Paste B.Mask))
  (pad 10 smd rect (at -5.08 2.54) (size 2.5 1) (layers B.Cu B.Paste B.Mask))
  (pad 12 smd rect (at -5.08 5.08) (size 2.5 1) (layers B.Cu B.Paste B.Mask))
  (pad 14 smd rect (at -5.08 7.62) (size 2.5 1) (layers B.Cu B.Paste B.Mask))
  (model ${KISYS3DMOD}/Connector_IDC.3dshapes/IDC-Header_2x07_P2.54mm_Vertical.step
    (offset (xyz -2.5 7.5 0.25))
    (scale (xyz 1 1 1))
    (rotate (xyz 0 -90 0))
  )
)
